[
  {"cowg": "*", "left_side_volume": "0", "intensity": "1", "abs_heading": "25", "shock_count": "2", "speed": "5", "collar": 1, "gps_position": "[-37.687230,175.590520]", "right_side_volume": "1", "distance": "5", "zone": "false", "time": "2019-02-04 11:37:27", "nudge_state": "off", "r_heading": "125"},
  {"cowg": "0", "left_side_volume": "0.1", "intensity": "1", "abs_heading": "35", "shock_count": "2", "speed": "5", "collar": 0, "gps_position": "[-37.687130,175.590420]", "right_side_volume": "0.9", "distance": "5", "zone": "5", "time": "2019-02-04 11:37:27", "nudge_state": "off", "r_heading": "125"},
  {"cowg": "0", "left_side_volume": "0.2", "intensity": "1", "abs_heading": "45", "shock_count": "2", "speed": "5", "collar": 3, "gps_position": "[-37.687030,175.590320]", "right_side_volume": "0.7", "distance": "5", "zone": "5", "time": "2019-02-04 11:37:27", "nudge_state": "off", "r_heading": "125"},
  {"cowg": "0", "left_side_volume": "0.3", "intensity": "1", "abs_heading": "135", "shock_count": "2", "speed": "5", "collar": 2, "gps_position": "[-37.687330,175.590220]", "right_side_volume": "0.6", "distance": "5", "zone": "6", "time": "2019-02-04 11:37:27", "nudge_state": "off", "r_heading": "125"},
  {"cowg": "1", "left_side_volume": "0.4", "intensity": "1", "abs_heading": "155", "shock_count": "2", "speed": "5", "collar": 5, "gps_position": "[-37.687430,175.590120]", "right_side_volume": "0.5", "distance": "5", "zone": "6", "time": "2019-02-04 11:37:27", "nudge_state": "off", "r_heading": "125"},
  {"cowg": "0", "left_side_volume": "0.5", "intensity": "1", "abs_heading": "195", "shock_count": "2", "speed": "5", "collar": 4, "gps_position": "[-37.687530,175.590020]", "right_side_volume": "0.4", "distance": "5", "zone": "7", "time": "2019-02-04 11:37:27", "nudge_state": "off", "r_heading": "125"},
  {"cowg": "1", "left_side_volume": "0.6", "intensity": "1", "abs_heading": "215", "shock_count": "2", "speed": "5", "collar": 7, "gps_position": "[-37.687630,175.590620]", "right_side_volume": "0.3", "distance": "5", "zone": "7", "time": "2019-02-04 11:37:27", "nudge_state": "off", "r_heading": "125"},
  {"cowg": "0", "left_side_volume": "0.7", "intensity": "1", "abs_heading": "295", "shock_count": "2", "speed": "5", "collar": 6, "gps_position": "[-37.687730,175.590720]", "right_side_volume": "0.2", "distance": "5", "zone": "8", "time": "2019-02-04 11:37:27", "nudge_state": "off", "r_heading": "125"},
  {"cowg": "1", "left_side_volume": "0.8", "intensity": "1", "abs_heading": "305", "shock_count": "2", "speed": "5", "collar": 9, "gps_position": "[-37.687830,175.590820]", "right_side_volume": "0.1", "distance": "5", "zone": "8", "time": "2019-02-04 11:37:27", "nudge_state": "off", "r_heading": "125"},
  {"cowg": "3", "left_side_volume": "1", "intensity": "1", "abs_heading": "360", "shock_count": "2", "speed": "5", "collar": 8, "gps_position": "[-37.687930,175.590920]", "right_side_volume": "0", "distance": "5", "zone": "8", "time": "2019-02-04 11:37:27", "nudge_state": "off", "r_heading": "125"}
]
